…
Starting with for loop

``` r
output = vector("list", length = 100)

for (i in 1:100) {
  
  output[[i]] = sim_mean_sd(samp_size = 30)
  
}

bind_rows(output)
```

    ## # A tibble: 100 x 2
    ##     mean    sd
    ##    <dbl> <dbl>
    ##  1  3.05  4.02
    ##  2  3.45  4.51
    ##  3  3.36  4.24
    ##  4  2.56  4.02
    ##  5  2.99  3.52
    ##  6  3.88  3.39
    ##  7  2.25  3.76
    ##  8  3.85  4.44
    ##  9  1.88  3.87
    ## 10  2.90  3.56
    ## # ... with 90 more rows
…
